R for Marine Science Workshop 2 - Final Excercise
…
catch_data_final <- 
catch_data_final |> 
  complete(
    nesting(site, date, 
            zone, mean_temp, mean_salinity, mean_turbidity),
    scientific_name
  ) |>
  mutate(
    count = coalesce(count, 0) # Convert the resulting NA counts to 0
  )

catch_data_final

# A tibble: 480 × 12
   site       date                zone    mean_temp mean_salinity mean_turbidity
   <chr>      <dttm>              <fct>       <dbl>         <dbl>          <dbl>
 1 lower_ross 2026-05-01 00:00:00 Downst…      23.8          28.4           27.9
 2 lower_ross 2026-05-01 00:00:00 Downst…      23.8          28.4           27.9
 3 lower_ross 2026-05-01 00:00:00 Downst…      23.8          28.4           27.9
 4 lower_ross 2026-05-01 00:00:00 Downst…      23.8          28.4           27.9
 5 lower_ross 2026-05-02 00:00:00 Downst…      24.0          27.7           24.1
 6 lower_ross 2026-05-02 00:00:00 Downst…      24.0          27.7           24.1
 7 lower_ross 2026-05-02 00:00:00 Downst…      24.0          27.7           24.1
 8 lower_ross 2026-05-02 00:00:00 Downst…      24.0          27.7           24.1
 9 lower_ross 2026-05-03 00:00:00 Downst…      24.2          28.1           20.6
10 lower_ross 2026-05-03 00:00:00 Downst…      24.2          28.1           20.6
# ℹ 470 more rows
# ℹ 6 more variables: scientific_name <chr>, species <chr>, count <dbl>,
#   common_name <chr>, lat <dbl>, lon <dbl>
…
